<svg xmlns="http://www.w3.org/2000/svg" width="37.159" height="27.257" viewBox="0 0 37.159 27.257">
  <path id="mail_1_" data-name="mail (1)" d="M3.177,0H33.982a3.181,3.181,0,0,1,3.164,2.894l-16.506,14a3.166,3.166,0,0,1-4.108,0L.013,2.907A3.18,3.18,0,0,1,3.177,0Zm0,27.257a3.158,3.158,0,0,1-1.923-.651l9.213-9.423a.674.674,0,1,0-.964-.942L.375,25.576A3.161,3.161,0,0,1,0,24.08V4.662L15.661,17.923a4.51,4.51,0,0,0,5.85,0L37.159,4.649V24.08a3.154,3.154,0,0,1-.378,1.5L27.6,16.24a.674.674,0,0,0-.961.945L35.9,26.61a3.159,3.159,0,0,1-1.92.648Zm0,0" transform="translate(0 0)" fill="#f26028"/>
</svg>
